<svg xmlns="http://www.w3.org/2000/svg" xmlns:xlink="http://www.w3.org/1999/xlink" viewBox="0 0 1200 1200">
    <defs>
        <style>
            .a {
                fill: url(#a);
            }
        </style>
        <linearGradient id="a" x1="1.1" y1="0.558" x2="-0.878" y2="1.397" gradientUnits="objectBoundingBox">
            <stop offset="0" stop-color="#fdc830" />
            <stop offset="1" stop-color="#f37335" />
        </linearGradient>
    </defs>
    <circle class="a" cx="600" cy="600" r="600" />
</svg>